module github.com/RasmusLindroth/i3keys

go 1.12

require (
	github.com/BurntSushi/xgb v0.0.0-20210121224620-deaf085860bc // indirect
	github.com/BurntSushi/xgbutil v0.0.0-20190907113008-ad855c713046 // indirect
	github.com/felixge/httpsnoop v1.0.2 // indirect
	github.com/gorilla/handlers v1.5.1
	github.com/gorilla/mux v1.8.0
	go.i3wm.org/i3/v4 v4.18.0
	golang.org/x/net v0.0.0-20190322120337-addf6b3196f6 // indirect
)
